{
    "Portalconfig": {
        "mapView": {
            "extent": [
                442800,
                5809000,
                738000,
                6102200
            ],
            "startResolution": 5.2916638091682096
        },
        "searchBar": {
            "minChars": 3,
            "placeholder": "translate#common:modules.searchbar.placeholder.addressTopicParcel",
            "quickHelp": true,
            "gazetteer": {
                "minChars": 3,
                "serviceId": "6",
                "searchStreets": true,
                "searchHouseNumbers": true,
                "searchDistricts": true,
                "searchParcels": true
            },
            "tree": {
                "minChars": 3
            }
        },
        "menu": {
            "tree": {
                "name": "translate#common:menu.topics",
                "glyphicon": "glyphicon-list",
                "isAlwaysExpanded": [
                    "SelectedLayer"
                ]
            },
            "tools": {
                "name": "translate#common:menu.tools.name",
                "glyphicon": "glyphicon-wrench",
                "children": {
                    "parcelSearch": {
                        "name": "translate#common:menu.tools.parcelSearch",
                        "glyphicon": "glyphicon-search",
                        "serviceId": "6",
                        "storedQueryID": "Flurstueck",
                        "configJSON": "https://geoportal-hamburg.de/lgv-config/gemarkungen_hh.json",
                        "parcelDenominator": false
                    },
                    "addWMS":{
                        "name": "translate#common:menu.tools.addWms",
                        "glyphicon":"glyphicon-plus"
                     },
                    "measure": {
                        "name": "translate#common:menu.tools.measure",
                        "glyphicon": "glyphicon-resize-full"
                    },
                    "gfi": {
                        "name": "translate#common:menu.tools.getInfos",
                        "glyphicon": "glyphicon-info-sign",
                        "active": true
                    },
                    "print": {
                        "name": "translate#common:menu.tools.print",
                        "glyphicon": "glyphicon-print",
                        "mapfishServiceId": "mapfish",
                        "printAppId": "master",
                        "filename": "Ausdruck",
                        "title": "Mein Titel",
                        "version": "mapfish_print_3"
                    },
                    "supplyCoord": {
                        "name": "translate#common:menu.tools.coord",
                        "glyphicon": "glyphicon-screenshot"
                    },
                    "searchByCoord": {
                        "name": "translate#common:menu.tools.searchByCoord",
                        "glyphicon": "glyphicon-record"
                    },
                    "fileImport": {
                        "name": "translate#common:menu.tools.fileImport",
                        "glyphicon": "glyphicon-import"
                    },
                    "draw": {
                      "name": "translate#common:menu.tools.draw",
                      "glyphicon": "glyphicon-pencil",
                      "renderToWindow": false,
                      "iconList": [
                        {
                          "id": "iconPoint",
                          "type": "simple_point",
                          "value": "simple_point"
                        },
                        {
                          "id": "iconMeadow",
                          "type": "image",
                          "scale": 0.8,
                          "value": "wiese.png"
                        },
                        {
                          "id": "gelber Pin",
                          "type": "image",
                          "scale": 0.5,
                          "value": "https://maps.google.com/mapfiles/kml/pushpin/ylw-pushpin.png"
                        }
                      ]
                    },
                    "saveSelection": {
                        "name": "translate#common:menu.tools.saveSelection",
                        "simpleMap": true,
                        "glyphicon": "glyphicon-share"
                    },
                    "shadow":
                    {
                      "name": "Schatten",
                      "glyphicon": "glyphicon-lamp",
                      "isShadowEnabled": true
                    }
                }
            },
            "legend": {
              "name": "common:modules.legend.name",
              "glyphicon": "glyphicon-book",
              "showCollapseAllButton": true
            },
            "contact": {
                "name": "translate#common:menu.contact",
                "glyphicon": "glyphicon-envelope",
                "serviceId": "80002",
                "from": [
                    {
                        "email": "lgvgeoportal-hilfe@gv.hamburg.de",
                        "name": "LGVGeoportalHilfe"
                    }
                ],
                "to": [
                    {
                        "email": "lgvgeoportal-hilfe@gv.hamburg.de",
                        "name": "LGVGeoportalHilfe"
                    }
                ],
                "includeSystemInfo": true
            }
        },
        "controls": {
            "orientation3d": true,
            "button3d": true,
            "toggleMenu": true,
            "fullScreen": true,
            "zoom": true,
            "orientation": true,
            "mousePosition": true,
            "attributions": true,
            "buttonOblique": true
        },
        "treeType": "default",
        "singleBaselayer": true
    },
    "Themenconfig": {
        "Hintergrundkarten": {
            "name": "translate#common:tree.backgroundMaps",
            "Layer": [
                {
                    "id": [
                        "13534",
                        "13537",
                        "13538",
                        "13539",
                        "13540",
                        "13541",
                        "13535",
                        "13536"
                    ],
                    "name": "Geobasiskarten (Schriftplatte)"
                },
                {
                    "id": [
                        "368",
                        "369",
                        "370",
                        "371",
                        "372",
                        "373",
                        "374",
                        "376",
                        "13923",
                        "13924",
                        "378",
                        "379",
                        "380",
                        "375",
                        "377",
                        "13920",
                        "381",
                        "382",
                        "383",
                        "384",
                        "385",
                        "386",
                        "387",
                        "388",
                        "389",
                        "13921",
                        "390",
                        "391",
                        "392",
                        "393",
                        "13922",
                        "394",
                        "395",
                        "396",
                        "397"
                    ],
                    "name": "ALKIS farbig"
                },
                {
                    "id": [
                        "149",
                        "150",
                        "151",
                        "152",
                        "153",
                        "154",
                        "155",
                        "157",
                        "13926",
                        "13927",
                        "159",
                        "160",
                        "161",
                        "156",
                        "158",
                        "13928",
                        "162",
                        "163",
                        "164",
                        "165",
                        "166",
                        "167",
                        "168",
                        "169",
                        "170",
                        "13930",
                        "171",
                        "172",
                        "173",
                        "174",
                        "13931",
                        "175",
                        "176",
                        "177",
                        "178"
                    ],
                    "name": "ALKIS grau-blau"
                },
                {
                    "id": [
                        "717",
                        "718",
                        "719",
                        "720",
                        "13712",
                        "13709",
                        "13714",
                        "13716"
                    ],
                    "name": "Geobasiskarten (farbig)"
                },
                {
                    "id": [
                        "4736",
                        "12062",
                        "4745",
                        "4739",
                        "12061",
                        "4742",
                        "12060",
                        "12059"
                    ],
                    "name": "Geobasiskarten (schwarz-grau)"
                },
                {
                    "id": [
                        "1043",
                        "1044",
                        "1045",
                        "1046",
                        "13649",
                        "13652",
                        "13654",
                        "13656"
                    ],
                    "name": "Geobasiskarten (grau-blau)"
                },
                {
                    "id": "452",
                    "name": "Luftbilder DOP 20 (DOP 40 mit Umland)"
                },
                {
                    "id": "94"
                },
                {
                    "id": "453",
                    "visibility": true
                }
            ]
        },
        "Fachdaten_3D":{
            "name": "translate#common:tree.subjectData3D",
            "Layer":[
                {
                    "id":"12883",
                    "name":"Gelände",
                    "visibility":true
                },
                {
                    "id":"16101",
                    "name":"Brueckenflaechen HH",
                    "visibility":true
                },
                {
                    "id":"12884",
                    "name":"Gebäude LoD2",
                    "visibility":true
                }
            ]
        }
    }
}
